D:\springboot\microservices-security\loans\src\main\java\com\eazybytes\loans\dto\LoansDto.java
D:\springboot\microservices-security\loans\src\main\java\com\eazybytes\loans\service\impl\LoansServiceImpl.java
D:\springboot\microservices-security\loans\src\main\java\com\eazybytes\loans\service\ILoansService.java
D:\springboot\microservices-security\loans\src\main\java\com\eazybytes\loans\exception\ResourceNotFoundException.java
D:\springboot\microservices-security\loans\src\main\java\com\eazybytes\loans\repository\LoansRepository.java
D:\springboot\microservices-security\loans\src\main\java\com\eazybytes\loans\controller\LoansController.java
D:\springboot\microservices-security\loans\src\main\java\com\eazybytes\loans\exception\LoanAlreadyExistsException.java
D:\springboot\microservices-security\loans\src\main\java\com\eazybytes\loans\audit\AuditAwareImpl.java
D:\springboot\microservices-security\loans\src\main\java\com\eazybytes\loans\dto\LoansContactInfoDto.java
D:\springboot\microservices-security\loans\src\main\java\com\eazybytes\loans\LoansApplication.java
D:\springboot\microservices-security\loans\src\main\java\com\eazybytes\loans\dto\ErrorResponseDto.java
D:\springboot\microservices-security\loans\src\main\java\com\eazybytes\loans\exception\GlobalExceptionHandler.java
D:\springboot\microservices-security\loans\src\main\java\com\eazybytes\loans\mapper\LoansMapper.java
D:\springboot\microservices-security\loans\src\main\java\com\eazybytes\loans\entity\BaseEntity.java
D:\springboot\microservices-security\loans\src\main\java\com\eazybytes\loans\constants\LoansConstants.java
D:\springboot\microservices-security\loans\src\main\java\com\eazybytes\loans\dto\ResponseDto.java
D:\springboot\microservices-security\loans\src\main\java\com\eazybytes\loans\entity\Loans.java
