D:\springboot\spring-cloud-config\accounts\src\main\java\com\eazybytes\accounts\exception\ResourceNotFoundException.java
D:\springboot\spring-cloud-config\accounts\src\main\java\com\eazybytes\accounts\repository\CustomerRepository.java
D:\springboot\spring-cloud-config\accounts\src\main\java\com\eazybytes\accounts\controller\AccountsController.java
D:\springboot\spring-cloud-config\accounts\src\main\java\com\eazybytes\accounts\AccountsApplication.java
D:\springboot\spring-cloud-config\accounts\src\main\java\com\eazybytes\accounts\dto\AccountsDto.java
D:\springboot\spring-cloud-config\accounts\src\main\java\com\eazybytes\accounts\dto\ErrorResponseDto.java
D:\springboot\spring-cloud-config\accounts\src\main\java\com\eazybytes\accounts\entity\Accounts.java
D:\springboot\spring-cloud-config\accounts\src\main\java\com\eazybytes\accounts\service\IAccountsService.java
D:\springboot\spring-cloud-config\accounts\src\main\java\com\eazybytes\accounts\audit\AuditAwareImpl.java
D:\springboot\spring-cloud-config\accounts\src\main\java\com\eazybytes\accounts\constants\AccountsConstants.java
D:\springboot\spring-cloud-config\accounts\src\main\java\com\eazybytes\accounts\mapper\AccountsMapper.java
D:\springboot\spring-cloud-config\accounts\src\main\java\com\eazybytes\accounts\dto\AccountsContactInfoDto.java
D:\springboot\spring-cloud-config\accounts\src\main\java\com\eazybytes\accounts\exception\CustomerAlreadyExistsException.java
D:\springboot\spring-cloud-config\accounts\src\main\java\com\eazybytes\accounts\mapper\CustomerMapper.java
D:\springboot\spring-cloud-config\accounts\src\main\java\com\eazybytes\accounts\service\impl\AccountsServiceImpl.java
D:\springboot\spring-cloud-config\accounts\src\main\java\com\eazybytes\accounts\dto\CustomerDto.java
D:\springboot\spring-cloud-config\accounts\src\main\java\com\eazybytes\accounts\entity\BaseEntity.java
D:\springboot\spring-cloud-config\accounts\src\main\java\com\eazybytes\accounts\exception\GlobalExceptionHandler.java
D:\springboot\spring-cloud-config\accounts\src\main\java\com\eazybytes\accounts\dto\ResponseDto.java
D:\springboot\spring-cloud-config\accounts\src\main\java\com\eazybytes\accounts\entity\Customer.java
D:\springboot\spring-cloud-config\accounts\src\main\java\com\eazybytes\accounts\repository\AccountsRepository.java
